…
## list_Top_Markers()

``` r
list_Top_Markers(folder = "GWAS_Results/", trait = "DTF_Nepal_2017")
```

    ## # A tibble: 34 × 6
    ##    SNP                       Chr       Pos Traits         Models        Max_LogP
    ##    <chr>                   <int>     <int> <chr>          <chr>            <dbl>
    ##  1 Lcu.1GRN.Chr5p1658484       5   1658484 DTF_Nepal_2017 BLINK; FarmC…    34.0 
    ##  2 Lcu.1GRN.Chr2p44546658      2  44546658 DTF_Nepal_2017 FarmCPU; MLM     33.0 
    ##  3 Lcu.1GRN.Chr2p44545877      2  44545877 DTF_Nepal_2017 BLINK; FarmC…    22.0 
    ##  4 Lcu.1GRN.Chr5p1650591       5   1650591 DTF_Nepal_2017 FarmCPU; MLM     18.7 
    ##  5 Lcu.1GRN.Chr3p345157947     3 345157947 DTF_Nepal_2017 FarmCPU          15.9 
    ##  6 Lcu.1GRN.Chr5p2101990       5   2101990 DTF_Nepal_2017 FarmCPU          14.8 
    ##  7 Lcu.1GRN.Chr6p111399799     6 111399799 DTF_Nepal_2017 BLINK             9.87
    ##  8 Lcu.1GRN.Chr3p389104888     3 389104888 DTF_Nepal_2017 BLINK             9.85
    ##  9 Lcu.1GRN.Chr3p345193745     3 345193745 DTF_Nepal_2017 BLINK; FarmC…     9.08
    ## 10 Lcu.1GRN.Chr7p33922006      7  33922006 DTF_Nepal_2017 FarmCPU           9.04
    ## # ℹ 24 more rows

``` r
list_Top_Markers(folder = "GWAS_Results/", trait = "DTF_Sask_2017")
```

    ## # A tibble: 32 × 6
    ##    SNP                       Chr       Pos Traits        Models         Max_LogP
    ##    <chr>                   <int>     <int> <chr>         <chr>             <dbl>
    ##  1 Lcu.1GRN.Chr2p44558948      2  44558948 DTF_Sask_2017 BLINK             15.2 
    ##  2 Lcu.1GRN.Chr2p45088100      2  45088100 DTF_Sask_2017 BLINK; FarmCPU    14.5 
    ##  3 Lcu.1GRN.Chr2p45092147      2  45092147 DTF_Sask_2017 FarmCPU           13.3 
    ##  4 Lcu.1GRN.Chr6p236151499     6 236151499 DTF_Sask_2017 BLINK             12.1 
    ##  5 Lcu.1GRN.Chr4p5017613       4   5017613 DTF_Sask_2017 BLINK             11.5 
    ##  6 Lcu.1GRN.Chr3p448489765     3 448489765 DTF_Sask_2017 BLINK             10.5 
    ##  7 Lcu.1GRN.Chr6p20799044      6  20799044 DTF_Sask_2017 BLINK; FarmCPU     9.58
    ##  8 Lcu.1GRN.Chr6p40079300      6  40079300 DTF_Sask_2017 BLINK              8.70
    ##  9 Lcu.1GRN.Chr3p444676637     3 444676637 DTF_Sask_2017 FarmCPU            8.55
    ## 10 Lcu.1GRN.Chr4p14484871      4  14484871 DTF_Sask_2017 BLINK; FarmCPU     7.98
    ## # ℹ 22 more rows

``` r
list_Top_Markers(folder = "GWAS_Results/", trait = "DTF_Sask_2017_b")
```

    ## # A tibble: 39 × 6
    ##    SNP                       Chr       Pos Traits          Models       Max_LogP
    ##    <chr>                   <int>     <int> <chr>           <chr>           <dbl>
    ##  1 Lcu.1GRN.Chr6p3269280       6   3269280 DTF_Sask_2017_b BLINK; Farm…     32.9
    ##  2 Lcu.1GRN.Chr1p437374598     1 437374598 DTF_Sask_2017_b FarmCPU          30.6
    ##  3 Lcu.1GRN.Chr1p446411579     1 446411579 DTF_Sask_2017_b FarmCPU          28.2
    ##  4 Lcu.1GRN.Chr6p3270522       6   3270522 DTF_Sask_2017_b FarmCPU          21.8
    ##  5 Lcu.1GRN.Chr3p448586972     3 448586972 DTF_Sask_2017_b FarmCPU          20.4
    ##  6 Lcu.1GRN.Chr3p437386398     3 437386398 DTF_Sask_2017_b FarmCPU          18.6
    ##  7 Lcu.1GRN.Chr6p431657465     6 431657465 DTF_Sask_2017_b FarmCPU          17.8
    ##  8 Lcu.1GRN.Chr1p437359352     1 437359352 DTF_Sask_2017_b BLINK; Farm…     17.5
    ##  9 Lcu.1GRN.Chr3p239208186     3 239208186 DTF_Sask_2017_b BLINK            14.0
    ## 10 Lcu.1GRN.Chr3p437318468     3 437318468 DTF_Sask_2017_b FarmCPU          13.3
    ## # ℹ 29 more rows

``` r
list_Top_Markers(folder = "GWAS_Results/", trait = "Cotyledon_Color")
```

    ## # A tibble: 39 × 6
    ##    SNP                       Chr       Pos Traits          Models       Max_LogP
    ##    <chr>                   <int>     <int> <chr>           <chr>           <dbl>
    ##  1 Lcu.1GRN.Chr1p365986872     1 365986872 Cotyledon_Color BLINK; Farm…    175. 
    ##  2 Lcu.1GRN.Chr1p361840399     1 361840399 Cotyledon_Color BLINK; Farm…     83.7
    ##  3 Lcu.1GRN.Chr1p361856257     1 361856257 Cotyledon_Color MLMM             39.5
    ##  4 Lcu.1GRN.Chr1p361407757     1 361407757 Cotyledon_Color FarmCPU          29.5
    ##  5 Lcu.1GRN.Chr1p365318023     1 365318023 Cotyledon_Color MLM              26.3
    ##  6 Lcu.1GRN.Chr1p365318027     1 365318027 Cotyledon_Color MLM              26.1
    ##  7 Lcu.1GRN.Chr1p27007485      1  27007485 Cotyledon_Color MLMM             23.1
    ##  8 Lcu.1GRN.Chr1p166851286     1 166851286 Cotyledon_Color FarmCPU          15.0
    ##  9 Lcu.1GRN.Chr1p361541626     1 361541626 Cotyledon_Color BLINK            14.6
    ## 10 Lcu.1GRN.Chr7p645659887     7 645659887 Cotyledon_Color BLINK            13.5
    ## # ℹ 29 more rows
…
